vcd/tb_fp_mul.vcd
$date
	Sat Dec 27 18:39:53 2025
$end
$version
	Icarus Verilog
$end
$timescale
	1ps
$end
$scope module tb_fp_mul $end
$var wire 64 ! tb_res [63:0] $end
$var reg 64 " tb_a [63:0] $end
$var reg 64 # tb_b [63:0] $end
$scope module uut $end
$var wire 64 $ a [63:0] $end
$var wire 64 % b [63:0] $end
$var wire 1 & is_inf_res $end
$var wire 1 ' is_nan_res $end
$var wire 1 ( is_zero_res $end
$var wire 1 ) res_sign $end
$var wire 1 * sign_b $end
$var wire 1 + sign_a $end
$var wire 1 , round_carry $end
$var wire 64 - res [63:0] $end
$var wire 106 . product [105:0] $end
$var wire 53 / mant_rounded [52:0] $end
$var wire 53 0 mant_b [52:0] $end
$var wire 53 1 mant_a [52:0] $end
$var wire 1 2 is_zero_b $end
$var wire 1 3 is_zero_a $end
$var wire 1 4 is_underflow $end
$var wire 1 5 is_overflow $end
$var wire 1 6 is_nan_b $end
$var wire 1 7 is_nan_a $end
$var wire 1 8 is_inf_b $end
$var wire 1 9 is_inf_a $end
$var wire 1 : is_denorm_b $end
$var wire 1 ; is_denorm_a $end
$var wire 52 < final_mant_field [51:0] $end
$var wire 11 = final_exp_field [10:0] $end
$var wire 14 > exp_sum [13:0] $end
$var wire 14 ? exp_final_unbiased [13:0] $end
$var wire 14 @ exp_biased [13:0] $end
$var wire 12 A exp_b [11:0] $end
$var wire 12 B exp_a [11:0] $end
$var reg 14 C exp_norm [13:0] $end
$var reg 1 D guard_bit $end
$var reg 53 E mant_for_round [52:0] $end
$var reg 1 F round_bit $end
$var reg 1 G sticky_bit $end
$scope module u_dec_a $end
$var wire 64 H fp_in [63:0] $end
$var wire 1 ; is_denormalized $end
$var wire 1 9 is_inf $end
$var wire 1 7 is_nan $end
$var wire 1 I is_special_exp $end
$var wire 1 3 is_zero $end
$var wire 1 + sign $end
$var wire 1 J raw_sign $end
$var wire 52 K raw_mantissa [51:0] $end
$var wire 11 L raw_exponent [10:0] $end
$var wire 53 M mantissa [52:0] $end
$var wire 1 N is_mantissa_zero $end
$var wire 12 O exponent [11:0] $end
$var parameter 11 P EXP_ALL_ONES $end
$var parameter 11 Q EXP_ALL_ZEROS $end
$var parameter 13 R EXP_BIAS $end
$upscope $end
$scope module u_dec_b $end
$var wire 64 S fp_in [63:0] $end
$var wire 1 : is_denormalized $end
$var wire 1 8 is_inf $end
$var wire 1 6 is_nan $end
$var wire 1 T is_special_exp $end
$var wire 1 2 is_zero $end
$var wire 1 * sign $end
$var wire 1 U raw_sign $end
$var wire 52 V raw_mantissa [51:0] $end
$var wire 11 W raw_exponent [10:0] $end
$var wire 53 X mantissa [52:0] $end
$var wire 1 Y is_mantissa_zero $end
$var wire 12 Z exponent [11:0] $end
$var parameter 11 [ EXP_ALL_ONES $end
$var parameter 11 \ EXP_ALL_ZEROS $end
$var parameter 13 ] EXP_BIAS $end
$upscope $end
$scope module u_recomp $end
$var wire 11 ^ final_exponent_field [10:0] $end
$var wire 52 _ final_mantissa_field [51:0] $end
$var wire 1 ) final_sign $end
$var wire 1 & is_inf_out $end
$var wire 1 ' is_nan_out $end
$var wire 1 ( is_zero_out $end
$var wire 64 ` fp_out [63:0] $end
$upscope $end
$scope module u_rounder $end
$var wire 1 D g $end
$var wire 53 a mant_in [52:0] $end
$var wire 1 F r $end
$var wire 1 b round_decision $end
$var wire 1 G s $end
$var wire 54 c rounded_result [53:0] $end
$var wire 53 d mant_out [52:0] $end
$var wire 1 e lsb $end
$var wire 1 , carry_out $end
$upscope $end
$upscope $end
$scope task run_test $end
$var reg 64 f a [63:0] $end
$var reg 64 g b [63:0] $end
$var reg 64 h expected [63:0] $end
$var reg 512 i test_name [511:0] $end
$upscope $end
$upscope $end
$enddefinitions $end
$comment Show the parameter values. $end
$dumpall
b1111111111 ]
b0 \
b11111111111 [
b1111111111 R
b0 Q
b11111111111 P
$end
#0
$dumpvars
bx i
bx h
bx g
bx f
0e
b0 d
b0 c
0b
b0 a
b0 `
b0 _
b1111111111 ^
b0 Z
1Y
b0 X
b0 W
b0 V
0U
1T
b0 S
b0 O
1N
b0 M
b0 L
b0 K
0J
1I
b0 H
0G
0F
b0 E
0D
b0 C
b0 B
b0 A
b1111111111 @
b0 ?
b0 >
b1111111111 =
b0 <
0;
0:
09
08
07
06
05
04
13
12
b0 1
b0 0
b0 /
b0 .
b0 -
0,
0+
0*
0)
1(
0'
0&
b0 %
b0 $
b0 #
b0 "
b0 !
$end
#10000
b100000000011000000000000000000000000000000000000000000000000000 !
b100000000011000000000000000000000000000000000000000000000000000 -
b100000000011000000000000000000000000000000000000000000000000000 `
b1000000000000000000000000000000000000000000000000000 <
b1000000000000000000000000000000000000000000000000000 _
b11000000000000000000000000000000000000000000000000000 /
b11000000000000000000000000000000000000000000000000000 d
b10000000001 =
b10000000001 ^
b1 A
b1 Z
b11000000000000000000000000000000000000000000000000000 c
b11000000000000000000000000000000000000000000000000000 E
b11000000000000000000000000000000000000000000000000000 a
b10000000001 @
b10 ?
b10 C
0(
b10 >
b1 B
b1 O
b110000000000000000000000000000000000000000000000000000000000000000000000000000000000000000000000000000000 .
b11000000000000000000000000000000000000000000000000000 0
b11000000000000000000000000000000000000000000000000000 X
b10000000000000000000000000000000000000000000000000000 1
b10000000000000000000000000000000000000000000000000000 M
0T
02
0I
03
b10000000000 W
0Y
b1000000000000000000000000000000000000000000000000000 V
b10000000000 L
b100000000001000000000000000000000000000000000000000000000000000 #
b100000000001000000000000000000000000000000000000000000000000000 %
b100000000001000000000000000000000000000000000000000000000000000 S
b100000000000000000000000000000000000000000000000000000000000000 "
b100000000000000000000000000000000000000000000000000000000000000 $
b100000000000000000000000000000000000000000000000000000000000000 H
b1010100011001010111001101110100001000000011000100111010001000000011001000101110001100000010000000101010001000000011001100101110001100000010000000111101001000000011011000101110001100000010000000101000010000100110000101110011011010010110001100101001 i
b100000000011000000000000000000000000000000000000000000000000000 h
b100000000001000000000000000000000000000000000000000000000000000 g
b100000000000000000000000000000000000000000000000000000000000000 f
#30000
b1100000000011000000000000000000000000000000000000000000000000000 !
b1100000000011000000000000000000000000000000000000000000000000000 -
b1100000000011000000000000000000000000000000000000000000000000000 `
1)
1+
1J
b1100000000000000000000000000000000000000000000000000000000000000 "
b1100000000000000000000000000000000000000000000000000000000000000 $
b1100000000000000000000000000000000000000000000000000000000000000 H
b101010001100101011100110111010000100000001100100011101000100000001011010011001000101110001100000010000000101010001000000011001100101110001100000010000000111101001000000010110100110110001011100011000000100000001010000101001101101001011001110110111000100000010000110110100001100101011000110110101100101001 i
b1100000000011000000000000000000000000000000000000000000000000000 h
b1100000000000000000000000000000000000000000000000000000000000000 f
#50000
b100000000011000000000000000000000000000000000000000000000000000 !
b100000000011000000000000000000000000000000000000000000000000000 -
b100000000011000000000000000000000000000000000000000000000000000 `
0)
1*
1U
b1100000000001000000000000000000000000000000000000000000000000000 #
b1100000000001000000000000000000000000000000000000000000000000000 %
b1100000000001000000000000000000000000000000000000000000000000000 S
b1010100011001010111001101110100001000000011001100111010001000000010110100110010001011100011000000100000001010100010000000101101001100110010111000110000001000000011110100100000001101100010111000110000001000000010100001001110011001010110011100100000001010100010000001001110011001010110011100101001 i
b100000000011000000000000000000000000000000000000000000000000000 h
b1100000000001000000000000000000000000000000000000000000000000000 g
#70000
b100000001011001000000000000000000000000000000000000000000000000 !
b100000001011001000000000000000000000000000000000000000000000000 -
b100000001011001000000000000000000000000000000000000000000000000 `
b10000000101 =
b10000000101 ^
b1001000000000000000000000000000000000000000000000000 <
b1001000000000000000000000000000000000000000000000000 _
b10000000101 @
b110 ?
b110 C
b11001000000000000000000000000000000000000000000000000 /
b11001000000000000000000000000000000000000000000000000 d
b0 A
b0 Z
b110 >
b110 B
b110 O
b11001000000000000000000000000000000000000000000000000 c
b11001000000000000000000000000000000000000000000000000 E
b11001000000000000000000000000000000000000000000000000 a
b10000000000000000000000000000000000000000000000000000 0
b10000000000000000000000000000000000000000000000000000 X
b110010000000000000000000000000000000000000000000000000000000000000000000000000000000000000000000000000000 .
b11001000000000000000000000000000000000000000000000000 1
b11001000000000000000000000000000000000000000000000000 M
0*
0U
b1111111111 W
1Y
b0 V
0+
0J
b10000000101 L
0N
b1001000000000000000000000000000000000000000000000000 K
b11111111110000000000000000000000000000000000000000000000000000 #
b11111111110000000000000000000000000000000000000000000000000000 %
b11111111110000000000000000000000000000000000000000000000000000 S
b100000001011001000000000000000000000000000000000000000000000000 "
b100000001011001000000000000000000000000000000000000000000000000 $
b100000001011001000000000000000000000000000000000000000000000000 H
b101010001100101011100110111010000100000001101000011101000100000001100010011000000110000001011100011000000100000001010100010000000110001001011100011000000100000001111010010000000110001001100000011000000101110001100000010000000101000010010010110010001100101011011100111010001101001011101000111100100101001 i
b100000001011001000000000000000000000000000000000000000000000000 h
b11111111110000000000000000000000000000000000000000000000000000 g
b100000001011001000000000000000000000000000000000000000000000000 f
#90000
b0 !
b0 -
b0 `
b10000000001 =
b10000000001 ^
b0 <
b0 _
1(
b10000000001 @
b10 ?
b10 C
b0 /
b0 d
b0 0
b0 X
b0 A
b0 Z
b10 >
b10 B
b10 O
b0 c
b0 E
b0 a
b0 .
b10100000000000000000000000000000000000000000000000000 1
b10100000000000000000000000000000000000000000000000000 M
1T
12
b0 W
b10000000001 L
b100000000000000000000000000000000000000000000000000 K
b0 #
b0 %
b0 S
b100000000010100000000000000000000000000000000000000000000000000 "
b100000000010100000000000000000000000000000000000000000000000000 $
b100000000010100000000000000000000000000000000000000000000000000 H
b10101000110010101110011011101000010000000110101001110100010000000110101001011100011000000100000001010100010000000110000001011100011000000100000001111010010000000110000001011100011000000100000001010000101101001100101011100100110111100100000010100000111001001101111011100000110010101110010011101000111100100101001 i
b0 h
b0 g
b100000000010100000000000000000000000000000000000000000000000000 f
#110000
b11111111111000000000000000000000000000000000000000000000000010 !
b11111111111000000000000000000000000000000000000000000000000010 -
b11111111111000000000000000000000000000000000000000000000000010 `
1b
b1000000000000000000000000000000000000000000000000010 <
b1000000000000000000000000000000000000000000000000010 _
1e
b11000000000000000000000000000000000000000000000000010 /
b11000000000000000000000000000000000000000000000000010 d
b1111111111 =
b1111111111 ^
0(
1D
b11000000000000000000000000000000000000000000000000010 c
b11000000000000000000000000000000000000000000000000001 E
b11000000000000000000000000000000000000000000000000001 a
b1111111111 @
b0 ?
b0 C
b110000000000000000000000000000000000000000000000000011000000000000000000000000000000000000000000000000000 .
b11000000000000000000000000000000000000000000000000000 0
b11000000000000000000000000000000000000000000000000000 X
b0 >
b0 B
b0 O
b10000000000000000000000000000000000000000000000000001 1
b10000000000000000000000000000000000000000000000000001 M
0T
02
b1111111111 W
0Y
b1000000000000000000000000000000000000000000000000000 V
b1111111111 L
b1 K
b11111111111000000000000000000000000000000000000000000000000000 #
b11111111111000000000000000000000000000000000000000000000000000 %
b11111111111000000000000000000000000000000000000000000000000000 S
b11111111110000000000000000000000000000000000000000000000000001 "
b11111111110000000000000000000000000000000000000000000000000001 $
b11111111110000000000000000000000000000000000000000000000000001 H
b101010001100101011100110111010000100000001101100100000100111010001000000010100000110001001011100011000000111111001010010010101000110001001011100011010100100000001111010010000000101000001100010010111000110101001111110010100100100000001010000100111101100100011001000010000001001100010100110100001000100000001011010011111000100000010100100110111101110101011011100110010000100000010101010111000000101001 i
b11111111111000000000000000000000000000000000000000000000000010 h
b11111111111000000000000000000000000000000000000000000000000000 g
b11111111110000000000000000000000000000000000000000000000000001 f
#130000
b11111111111000000000000000000000000000000000000000000000000100 !
b11111111111000000000000000000000000000000000000000000000000100 -
b11111111111000000000000000000000000000000000000000000000000100 `
0b
b1000000000000000000000000000000000000000000000000100 <
b1000000000000000000000000000000000000000000000000100 _
0e
b11000000000000000000000000000000000000000000000000100 /
b11000000000000000000000000000000000000000000000000100 d
1D
b11000000000000000000000000000000000000000000000000100 c
b11000000000000000000000000000000000000000000000000100 E
b11000000000000000000000000000000000000000000000000100 a
b110000000000000000000000000000000000000000000000001001000000000000000000000000000000000000000000000000000 .
b10000000000000000000000000000000000000000000000000011 1
b10000000000000000000000000000000000000000000000000011 M
b11 K
b11111111110000000000000000000000000000000000000000000000000011 "
b11111111110000000000000000000000000000000000000000000000000011 $
b11111111110000000000000000000000000000000000000000000000000011 H
b101010001100101011100110111010000100000001101100100001000111010001000000010100000110001001011100011000000111111001010010010101000110001001011100011010100100000001111010010000000101000001100010010111000110101001111110010100100100000001010000100010101110110011001010110111000100000010011000101001101000010001000000010110100111110001000000101001001101111011101010110111001100100001000000100010001101111011101110110111000101001 i
b11111111111000000000000000000000000000000000000000000000000100 h
b11111111110000000000000000000000000000000000000000000000000011 f
#150000
b111111111110000000000000000000000000000000000000000000000000000 !
b111111111110000000000000000000000000000000000000000000000000000 -
b111111111110000000000000000000000000000000000000000000000000000 `
1&
b10000000001 =
b10000000001 ^
b0 <
b0 _
05
b10000000001 @
b10 ?
b10 C
b0 /
b0 d
b0 A
b0 Z
b10 >
b10 B
b10 O
0D
b0 c
b0 E
b0 a
b0 0
b0 X
b0 .
b10100000000000000000000000000000000000000000000000000 1
b10100000000000000000000000000000000000000000000000000 M
1T
18
b11111111111 W
1Y
b0 V
b10000000001 L
b100000000000000000000000000000000000000000000000000 K
b111111111110000000000000000000000000000000000000000000000000000 #
b111111111110000000000000000000000000000000000000000000000000000 %
b111111111110000000000000000000000000000000000000000000000000000 S
b100000000010100000000000000000000000000000000000000000000000000 "
b100000000010100000000000000000000000000000000000000000000000000 $
b100000000010100000000000000000000000000000000000000000000000000 H
b101010001100101011100110111010000100000001101110011101000100000001101010010111000110000001000000010101000100000010010010110111001100110001000000011110100100000010010010110111001100110 i
b111111111110000000000000000000000000000000000000000000000000000 h
b111111111110000000000000000000000000000000000000000000000000000 g
b100000000010100000000000000000000000000000000000000000000000000 f
#170000
b1111111111110000000000000000000000000000000000000000000000000000 !
b1111111111110000000000000000000000000000000000000000000000000000 -
b1111111111110000000000000000000000000000000000000000000000000000 `
1)
1+
1J
b1100000000010100000000000000000000000000000000000000000000000000 "
b1100000000010100000000000000000000000000000000000000000000000000 $
b1100000000010100000000000000000000000000000000000000000000000000 H
b1010100011001010111001101110100001000000011100000111010001000000010110100110101001011100011000000100000001010100010000001001001011011100110011000100000001111010010000000101101010010010110111001100110 i
b1111111111110000000000000000000000000000000000000000000000000000 h
b1100000000010100000000000000000000000000000000000000000000000000 f
#190000
b1111111111 =
b1111111111 ^
0(
04
b1111111111 @
b0 ?
b0 C
0&
1'
b111111111111000000000000000000000000000000000000000000000000001 !
b111111111111000000000000000000000000000000000000000000000000001 -
b111111111111000000000000000000000000000000000000000000000000001 `
b0 >
b0 B
b0 O
b0 1
b0 M
0)
1I
13
0+
0J
b0 L
1N
b0 K
b0 "
b0 $
b0 H
b101010001100101011100110111010000100000001110010011101000100000001100000010111000110000001000000010101000100000010010010110111001100110001000000011110100100000010011100110000101001110 i
b111111111111000000000000000000000000000000000000000000000000001 h
b0 f
#210000
1&
b111111111110000000000000000000000000000000000000000000000000000 !
b111111111110000000000000000000000000000000000000000000000000000 -
b111111111110000000000000000000000000000000000000000000000000000 `
0'
19
03
b11111111111 L
b111111111110000000000000000000000000000000000000000000000000000 "
b111111111110000000000000000000000000000000000000000000000000000 $
b111111111110000000000000000000000000000000000000000000000000000 H
b10101000110010101110011011101000010000000110001001100000011101000100000010010010110111001100110001000000010101000100000010010010110111001100110001000000011110100100000010010010110111001100110 i
b111111111110000000000000000000000000000000000000000000000000000 h
b111111111110000000000000000000000000000000000000000000000000000 f
#230000
b10000000001 =
b10000000001 ^
b10000000001 @
b10 ?
b10 C
0&
b10 >
b10 A
b10 Z
b111111111111000000000000000000000000000000000000000000000000001 !
b111111111111000000000000000000000000000000000000000000000000001 -
b111111111111000000000000000000000000000000000000000000000000001 `
b10100000000000000000000000000000000000000000000000000 0
b10100000000000000000000000000000000000000000000000000 X
1'
0T
08
17
09
b10000000001 W
0Y
b100000000000000000000000000000000000000000000000000 V
0N
b1000000000000000000000000000000000000000000000000001 K
b100000000010100000000000000000000000000000000000000000000000000 #
b100000000010100000000000000000000000000000000000000000000000000 %
b100000000010100000000000000000000000000000000000000000000000000 S
b111111111111000000000000000000000000000000000000000000000000001 "
b111111111111000000000000000000000000000000000000000000000000001 $
b111111111111000000000000000000000000000000000000000000000000001 H
b10101000110010101110011011101000010000000110001001100010011101000100000010011100110000101001110001000000010101000100000001101010010111000110000001000000011110100100000010011100110000101001110 i
b111111111111000000000000000000000000000000000000000000000000001 h
b100000000010100000000000000000000000000000000000000000000000000 g
b111111111111000000000000000000000000000000000000000000000000001 f
#250000
1&
b1111111111111111111111111111111111111111111111111111 <
b1111111111111111111111111111111111111111111111111111 _
15
1e
b11111111111111111111111111111111111111111111111111111 /
b11111111111111111111111111111111111111111111111111111 d
b11111111111 =
b11111111111 ^
b1111111111 B
b1111111111 O
b11111111111111111111111111111111111111111111111111111 c
b11111111111111111111111111111111111111111111111111111 E
b11111111111111111111111111111111111111111111111111111 a
b11111111111 @
b10000000000 ?
b10000000000 C
b111111111110000000000000000000000000000000000000000000000000000 !
b111111111110000000000000000000000000000000000000000000000000000 -
b111111111110000000000000000000000000000000000000000000000000000 `
b10000000000 >
b1 A
b1 Z
b111111111111111111111111111111111111111111111111111110000000000000000000000000000000000000000000000000000 .
b11111111111111111111111111111111111111111111111111111 1
b11111111111111111111111111111111111111111111111111111 M
0'
b10000000000000000000000000000000000000000000000000000 0
b10000000000000000000000000000000000000000000000000000 X
0I
07
b10000000000 W
1Y
b0 V
b11111111110 L
b1111111111111111111111111111111111111111111111111111 K
b100000000000000000000000000000000000000000000000000000000000000 #
b100000000000000000000000000000000000000000000000000000000000000 %
b100000000000000000000000000000000000000000000000000000000000000 S
b111111111101111111111111111111111111111111111111111111111111111 "
b111111111101111111111111111111111111111111111111111111111111111 $
b111111111101111111111111111111111111111111111111111111111111111 H
b101010001100101011100110111010000100000001100010011001000111010001000000100110101100001011110000101111101000100011011110111010101100010011011000110010100100000001010100010000000110010001011100011000000100000001011010011111000100000010011110111011001100101011100100110011001101100011011110111011100100000011101000110111100100000010010010110111001100110 i
b111111111110000000000000000000000000000000000000000000000000000 h
b100000000000000000000000000000000000000000000000000000000000000 g
b111111111101111111111111111111111111111111111111111111111111111 f
#270000
1(
b0 !
b0 -
b0 `
0&
b11111001100 =
b11111001100 ^
b0 <
b0 _
05
14
b11111111001100 @
b11101111001101 ?
b11101111001101 C
0e
b10000000000000000000000000000000000000000000000000000 /
b10000000000000000000000000000000000000000000000000000 d
b111111001011 A
b111111001011 Z
b11101111001101 >
b110000000010 B
b110000000010 O
b10000000000000000000000000000000000000000000000000000 c
b10000000000000000000000000000000000000000000000000000 E
b10000000000000000000000000000000000000000000000000000 a
b100000000000000000000000000000000000000000000000000000000000000000000000000000000000000000000000000000000 .
b10000000000000000000000000000000000000000000000000000 1
b10000000000000000000000000000000000000000000000000000 M
b1111001010 W
b1 L
1N
b0 K
b11110010100000000000000000000000000000000000000000000000000000 #
b11110010100000000000000000000000000000000000000000000000000000 %
b11110010100000000000000000000000000000000000000000000000000000 S
b10000000000000000000000000000000000000000000000000000 "
b10000000000000000000000000000000000000000000000000000 $
b10000000000000000000000000000000000000000000000000000 H
b1010100011001010111001101110100001000000011000100110011001110100010000001001101011010010110111001011111010011100110111101110010011011010010000000101010001000000011001001011110001011010011010100110011001000000010110100111110001000000101010101101110011001000110010101110010011001100110110001101111011101110010000001110100011011110010000000110000 i
b0 h
b11110010100000000000000000000000000000000000000000000000000000 g
b10000000000000000000000000000000000000000000000000000 f
