vcd/tb_int_to_fp.vcd
$date
	Sat Dec 27 18:39:57 2025
$end
$version
	Icarus Verilog
$end
$timescale
	1ps
$end
$scope module tb_int_to_fp $end
$var wire 64 ! tb_fp_out [63:0] $end
$var reg 1 " tb_clk $end
$var reg 64 # tb_int_in [63:0] $end
$scope module uut $end
$var wire 64 $ int_in [63:0] $end
$var wire 1 % sticky_bit $end
$var wire 1 & sign $end
$var wire 1 ' round_carry $end
$var wire 1 ( round_bit $end
$var wire 53 ) mant_rounded [52:0] $end
$var wire 53 * mant_pre_round [52:0] $end
$var wire 7 + lzc_count [6:0] $end
$var wire 1 , is_input_zero $end
$var wire 1 - guard_bit $end
$var wire 64 . fp_out [63:0] $end
$var wire 52 / final_mant [51:0] $end
$var wire 11 0 final_exp [10:0] $end
$var wire 12 1 exp_base [11:0] $end
$var wire 64 2 aligned_data [63:0] $end
$var wire 64 3 abs_in [63:0] $end
$scope module u_lzc $end
$var wire 64 4 data_in [63:0] $end
$var reg 7 5 count [6:0] $end
$scope function lzc_8 $end
$var reg 8 6 d [7:0] $end
$upscope $end
$upscope $end
$scope module u_recomposer $end
$var wire 11 7 final_exponent_field [10:0] $end
$var wire 52 8 final_mantissa_field [51:0] $end
$var wire 1 & final_sign $end
$var wire 64 9 fp_out [63:0] $end
$var wire 1 : is_inf_out $end
$var wire 1 ; is_nan_out $end
$var wire 1 , is_zero_out $end
$upscope $end
$scope module u_rounder $end
$var wire 1 - g $end
$var wire 53 < mant_in [52:0] $end
$var wire 1 ( r $end
$var wire 1 = round_decision $end
$var wire 1 % s $end
$var wire 54 > rounded_result [53:0] $end
$var wire 53 ? mant_out [52:0] $end
$var wire 1 @ lsb $end
$var wire 1 ' carry_out $end
$upscope $end
$upscope $end
$scope task run_test $end
$var reg 64 A expected [63:0] $end
$var reg 64 B i_val [63:0] $end
$var reg 512 C test_name [511:0] $end
$upscope $end
$upscope $end
$enddefinitions $end
$comment Show the parameter values. $end
$dumpall
$end
#0
$dumpvars
bx C
bx B
bx A
0@
b0 ?
b0 >
0=
b0 <
0;
0:
b0 9
b0 8
b1111111110 7
bx 6
b1000000 5
b0 4
b0 3
b0 2
b1111111110 1
b1111111110 0
b0 /
b0 .
0-
1,
b1000000 +
b0 *
b0 )
0(
0'
0&
0%
b0 $
b0 #
0"
b0 !
$end
#5000
1"
#10000
0"
#15000
1"
#20000
0"
b10101000110010101110011011101000010000000110001001110100010000001011010011001010111001001101111 C
b0 A
b0 B
#25000
1"
#30000
0"
#35000
b10000000000000000000000000000000000000000000000000000 )
b10000000000000000000000000000000000000000000000000000 ?
b1111111111 0
b1111111111 7
b10000000000000000000000000000000000000000000000000000 >
b10000000000000000000000000000000000000000000000000000 *
b10000000000000000000000000000000000000000000000000000 <
b1111111111 1
b1000000000000000000000000000000000000000000000000000000000000000 2
b111111 +
b111111 5
b1 6
b1 3
b1 4
b11111111110000000000000000000000000000000000000000000000000000 !
b11111111110000000000000000000000000000000000000000000000000000 .
b11111111110000000000000000000000000000000000000000000000000000 9
0,
b1 #
b1 $
b101010001100101011100110111010000100000001100100011101000100000010100000110111101110011011010010111010001101001011101100110010100100000010011110110111001100101 C
b11111111110000000000000000000000000000000000000000000000000000 A
b1 B
1"
#40000
0"
#45000
1"
#50000
0"
#55000
b10000000000000000000000000000000000000000000000000000 )
b10000000000000000000000000000000000000000000000000000 ?
b1111111111 0
b1111111111 7
b10000000000000000000000000000000000000000000000000000 >
b10000000000000000000000000000000000000000000000000000 *
b10000000000000000000000000000000000000000000000000000 <
0%
b1011111111110000000000000000000000000000000000000000000000000000 !
b1011111111110000000000000000000000000000000000000000000000000000 .
b1011111111110000000000000000000000000000000000000000000000000000 9
b1111111111 1
b1000000000000000000000000000000000000000000000000000000000000000 2
b111111 +
b111111 5
b1 6
1&
b1 3
b1 4
b1111111111111111111111111111111111111111111111111111111111111111 #
b1111111111111111111111111111111111111111111111111111111111111111 $
b101010001100101011100110111010000100000001100110011101000100000010011100110010101100111011000010111010001101001011101100110010100100000010011110110111001100101 C
b1011111111110000000000000000000000000000000000000000000000000000 A
b1111111111111111111111111111111111111111111111111111111111111111 B
1"
#60000
0"
#65000
1"
#70000
0"
#75000
b10000110011 0
b10000110011 7
b10000110011 1
b1011 +
b1011 5
b10000 6
b1000000000000000000000000000000000000000000000000000000000000000 2
b10000000000000000000000000000000000000000000000000000 3
b10000000000000000000000000000000000000000000000000000 4
b100001100110000000000000000000000000000000000000000000000000000 !
b100001100110000000000000000000000000000000000000000000000000000 .
b100001100110000000000000000000000000000000000000000000000000000 9
0&
b10000000000000000000000000000000000000000000000000000 #
b10000000000000000000000000000000000000000000000000000 $
b1010100011001010111001101110100001000000011010000111010001000000100110001100001011100100110011101100101001000000100010101111000011000010110001101110100001000000101000001101111011101110110010101110010001000000110111101100110001000000011001000100000001010000011001001011110001101010011001000101001 C
b100001100110000000000000000000000000000000000000000000000000000 A
b10000000000000000000000000000000000000000000000000000 B
1"
#80000
0"
#85000
1"
#90000
0"
#95000
b100000000000000000000000000000000000000000000000000 /
b100000000000000000000000000000000000000000000000000 8
0@
b10100000000000000000000000000000000000000000000000000 )
b10100000000000000000000000000000000000000000000000000 ?
b10000000001 0
b10000000001 7
0%
b1100000000010100000000000000000000000000000000000000000000000000 !
b1100000000010100000000000000000000000000000000000000000000000000 .
b1100000000010100000000000000000000000000000000000000000000000000 9
b10100000000000000000000000000000000000000000000000000 >
b10100000000000000000000000000000000000000000000000000 *
b10100000000000000000000000000000000000000000000000000 <
b10000000001 1
b111101 +
b111101 5
b101 6
1&
b1010000000000000000000000000000000000000000000000000000000000000 2
b101 3
b101 4
b1111111111111111111111111111111111111111111111111111111111111011 #
b1111111111111111111111111111111111111111111111111111111111111011 $
b101010001100101011100110111010000100000001101010011101000100000010100110110110101100001011011000110110000100000010011100110010101100111011000010111010001101001011101100110010100100000010010010110111001110100011001010110011101100101011100100010000000101000001011010011010100101001 C
b1100000000010100000000000000000000000000000000000000000000000000 A
b1111111111111111111111111111111111111111111111111111111111111011 B
1"
#100000
0"
#105000
1"
#110000
0"
#115000
b0 /
b0 8
b1100001111100000000000000000000000000000000000000000000000000000 !
b1100001111100000000000000000000000000000000000000000000000000000 .
b1100001111100000000000000000000000000000000000000000000000000000 9
b10000000000000000000000000000000000000000000000000000 )
b10000000000000000000000000000000000000000000000000000 ?
b10000111110 0
b10000111110 7
b10000000000000000000000000000000000000000000000000000 >
b10000000000000000000000000000000000000000000000000000 *
b10000000000000000000000000000000000000000000000000000 <
b10000111110 1
b0 +
b0 5
b10000000 6
b1000000000000000000000000000000000000000000000000000000000000000 2
b1000000000000000000000000000000000000000000000000000000000000000 3
b1000000000000000000000000000000000000000000000000000000000000000 4
b1000000000000000000000000000000000000000000000000000000000000000 #
b1000000000000000000000000000000000000000000000000000000000000000 $
b1010100011001010111001101110100001000000011011000111010001000000100100101101110011101000011011000110100001000000100110101101001011011100010000000101000001011010011001001011110001101100011001100101001 C
b1100001111100000000000000000000000000000000000000000000000000000 A
b1000000000000000000000000000000000000000000000000000000000000000 B
1"
#120000
0"
#125000
1"
#130000
0"
#135000
1'
b0 /
b0 8
1=
1@
b0 )
b0 ?
b10000111110 0
b10000111110 7
b100000000000000000000000000000000000000000000000000000 >
b11111111111111111111111111111111111111111111111111111 *
b11111111111111111111111111111111111111111111111111111 <
1-
1(
1%
b10000111101 1
b1 +
b1 5
b1111111 6
b1111111111111111111111111111111111111111111111111111111111111110 2
b111111111111111111111111111111111111111111111111111111111111111 3
b111111111111111111111111111111111111111111111111111111111111111 4
b100001111100000000000000000000000000000000000000000000000000000 !
b100001111100000000000000000000000000000000000000000000000000000 .
b100001111100000000000000000000000000000000000000000000000000000 9
0&
b111111111111111111111111111111111111111111111111111111111111111 #
b111111111111111111111111111111111111111111111111111111111111111 $
b1010100011001010111001101110100001000000011011100111010001000000100100101101110011101000011011000110100001000000100110101100001011110000010000000101000010100100110111101110101011011100110010001110011001000000111010101110000001000000111010001101111001000000011001001011110001101100011001100101001 C
b100001111100000000000000000000000000000000000000000000000000000 A
b111111111111111111111111111111111111111111111111111111111111111 B
1"
#140000
0"
#145000
1"
#150000
0"
#155000
b0 /
b0 8
0=
b100001101000000000000000000000000000000000000000000000000000000 !
b100001101000000000000000000000000000000000000000000000000000000 .
b100001101000000000000000000000000000000000000000000000000000000 9
0@
b10000000000000000000000000000000000000000000000000000 )
b10000000000000000000000000000000000000000000000000000 ?
0'
b10000110100 0
b10000110100 7
b10000000000000000000000000000000000000000000000000000 >
b10000000000000000000000000000000000000000000000000000 *
b10000000000000000000000000000000000000000000000000000 <
0(
0%
b10000110100 1
b1010 +
b1010 5
b100000 6
b1000000000000000000000000000000000000000000000000000010000000000 2
b100000000000000000000000000000000000000000000000000001 3
b100000000000000000000000000000000000000000000000000001 4
b100000000000000000000000000000000000000000000000000001 #
b100000000000000000000000000000000000000000000000000001 $
b101010001100101011100110111010000100000001110000011101000100000010101000110100101100101001000000111010001101111001000000100010101110110011001010110111000100000001010000101001001101111011101010110111001100100001000000100010001101111011101110110111000101111010101000111001001110101011011100110001101100001011101000110010100101001 C
b100001101000000000000000000000000000000000000000000000000000000 A
b100000000000000000000000000000000000000000000000000001 B
1"
#160000
0"
#165000
1"
#170000
0"
#175000
b100001101000000000000000000000000000000000000000000000000000010 !
b100001101000000000000000000000000000000000000000000000000000010 .
b100001101000000000000000000000000000000000000000000000000000010 9
1=
b10 /
b10 8
1@
b10000000000000000000000000000000000000000000000000010 )
b10000000000000000000000000000000000000000000000000010 ?
b10000000000000000000000000000000000000000000000000010 >
b10000000000000000000000000000000000000000000000000001 *
b10000000000000000000000000000000000000000000000000001 <
b1000000000000000000000000000000000000000000000000000110000000000 2
b100000000000000000000000000000000000000000000000000011 3
b100000000000000000000000000000000000000000000000000011 4
b100000000000000000000000000000000000000000000000000011 #
b100000000000000000000000000000000000000000000000000011 $
b1010100011001010111001101110100001000000011100100111010001000000101010001101001011001010010000001110100011011110010000001000101011101100110010101101110001000000010100001010010011011110111010101101110011001000010000001010101011100000010111101001001011011100110001101110010011001010110110101100101011011100111010000101001 C
b100001101000000000000000000000000000000000000000000000000000010 A
b100000000000000000000000000000000000000000000000000011 B
1"
#180000
0"
#185000
1"
#190000
0"
#195000
b1 /
b1 8
b100001101010000000000000000000000000000000000000000000000000001 !
b100001101010000000000000000000000000000000000000000000000000001 .
b100001101010000000000000000000000000000000000000000000000000001 9
0@
b10000000000000000000000000000000000000000000000000001 )
b10000000000000000000000000000000000000000000000000001 ?
b10000110101 0
b10000110101 7
1(
b10000000000000000000000000000000000000000000000000001 >
b10000000000000000000000000000000000000000000000000000 *
b10000000000000000000000000000000000000000000000000000 <
b10000110101 1
b1001 +
b1001 5
b1000000 6
b1000000000000000000000000000000000000000000000000000011000000000 2
b1000000000000000000000000000000000000000000000000000011 3
b1000000000000000000000000000000000000000000000000000011 4
b1000000000000000000000000000000000000000000000000000011 #
b1000000000000000000000000000000000000000000000000000011 $
b1010100011001010111001101110100001000000011000100110000001110100010000001010010011011110111010101101110011001000010000001010101011100000010000000101000010001100111001001100001011000110111010001101001011011110110111000100000001111100010000000110000001011100011010100101001 C
b100001101010000000000000000000000000000000000000000000000000001 A
b1000000000000000000000000000000000000000000000000000011 B
1"
